<svg xmlns="http://www.w3.org/2000/svg" width="11.414" height="7.121" viewBox="0 0 11.414 7.121">
  <path id="Path_548" data-name="Path 548" d="M1132.934,604.309l-5,5,5,5" transform="translate(-603.602 1133.641) rotate(-90)" fill="none" stroke="#000" stroke-width="2"/>
</svg>
