<?xml version="1.0" encoding="utf-8"?>
<!-- Generator: Adobe Illustrator 25.3.1, SVG Export Plug-In . SVG Version: 6.00 Build 0)  -->
<svg version="1.1" id="Layer_1" xmlns="http://www.w3.org/2000/svg" xmlns:xlink="http://www.w3.org/1999/xlink" x="0px" y="0px"
	 viewBox="0 0 32 32" style="enable-background:new 0 0 32 32;" xml:space="preserve">
<g>
	<g id="Artboard_1">
		<g id="Path_10561" transform="translate(-167.68 -223.97)">
			<path id="Path_10558" d="M183.733,226.97h-0.053c-7.1653,0.0146-12.9621,5.8351-12.9475,13.0005s5.8351,12.9621,13.0005,12.9475
				s12.9621-5.8351,12.9475-13.0005C196.6659,232.7728,190.8776,226.9846,183.733,226.97z M187.086,229.262
				c2.7947,0.8783,5.1319,2.8204,6.507,5.407l0.212,0.371h-5.526l-0.04-0.212c-0.1736-1.2606-0.4618-2.5027-0.861-3.711
				c-0.1665-0.5205-0.367-1.0296-0.6-1.524l-0.252-0.517L187.086,229.262z M186.847,239.983c0,0.914-0.04,1.895-0.119,2.915
				l-0.013,0.225h-6.069l-0.013-0.225c-0.079-1.02-0.119-2-0.119-2.915c0-0.994,0.04-1.988,0.119-2.942l0.013-0.212h6.069
				l0.013,0.212C186.8073,237.9957,186.847,238.9763,186.847,239.983z M180.91,234.762c0.1736-1.0457,0.4216-2.0776,0.742-3.088
				l0.133-0.4l0.013,0.013c0.649-1.762,1.4-2.544,1.882-2.544s1.232,0.782,1.882,2.544l0.013-0.013l0.133,0.4
				c0.319,1.0108,0.5669,2.0426,0.742,3.088l0.027,0.292h-5.606L180.91,234.762z M173.754,234.669
				c1.3804-2.5874,3.7218-4.5292,6.52-5.407l0.557-0.186l-0.252,0.517c-0.2387,0.4919-0.4393,1.0014-0.6,1.524
				c-0.3992,1.2083-0.6874,2.4504-0.861,3.711l-0.04,0.212h-5.526L173.754,234.669z M172.826,242.938
				c-0.5127-1.9414-0.5127-3.9826,0-5.924l0.053-0.186h5.99l-0.013,0.265c-0.079,0.941-0.119,1.908-0.119,2.889
				s0.04,1.935,0.119,2.862l0.013,0.278h-5.99L172.826,242.938z M180.273,250.664c-2.7923-0.8807-5.1313-2.8154-6.52-5.393
				l-0.2-0.371h5.526l0.04,0.2c0.1736,1.2606,0.4618,2.5027,0.861,3.711c0.1607,0.5184,0.3613,1.0236,0.6,1.511l0.239,0.53
				L180.273,250.664z M186.448,245.178c-0.1692,1.0454-0.4128,2.0773-0.729,3.088l-0.053,0.133
				c-0.729,2.067-1.511,2.809-1.975,2.809h-0.026c-0.464,0-1.259-0.742-1.975-2.809l-0.053-0.133
				c-0.3224-1.009-0.5661-2.0414-0.729-3.088l-0.053-0.278h5.645L186.448,245.178z M193.591,245.271
				c-1.3802,2.5795-3.7161,4.5156-6.507,5.393l-0.543,0.186l0.225-0.53c0.2418-0.4873,0.4458-0.9924,0.61-1.511
				c0.3991-1.2083,0.6873-2.4504,0.861-3.711l0.04-0.2h5.523L193.591,245.271z M194.479,243.124h-5.99l0.013-0.278
				c0.08-0.928,0.119-1.9,0.119-2.862s-0.04-1.961-0.119-2.889l-0.013-0.265h5.99l0.053,0.186
				c0.2667,0.9664,0.396,1.9655,0.384,2.968c0.0046,0.9977-0.1246,1.9916-0.384,2.955L194.479,243.124z"/>
		</g>
	</g>
</g>
</svg>
