<svg xmlns="http://www.w3.org/2000/svg" xmlns:xlink="http://www.w3.org/1999/xlink" width="32" height="32" viewBox="0 0 32 32">
  <defs>
    <clipPath id="clip-header_home">
      <rect width="32" height="32"/>
    </clipPath>
  </defs>
  <g id="header_home" clip-path="url(#clip-header_home)">
    <g id="Group_15332" data-name="Group 15332" transform="translate(-210.82 -224.9)">
      <path id="Path_10561" data-name="Path 10561" d="M242.489,238.141l-.029-.014-11.725-8.916a6.554,6.554,0,0,0-7.865,0L211.131,238.2a.909.909,0,0,0-.086,1.282.946.946,0,0,0,1.224.158l11.711-8.959a4.646,4.646,0,0,1,5.632,0l11.739,8.916a.918.918,0,0,0,1.282-.2h0A.906.906,0,0,0,242.489,238.141Z" transform="translate(0 0)"/>
      <path id="Path_10562" data-name="Path 10562" d="M234.78,245.056a4.666,4.666,0,0,1-4.638,4.653h-9.564a4.666,4.666,0,0,1-4.638-4.653V234.743l-1.844,1.4v8.916a6.492,6.492,0,0,0,6.482,6.482h9.564a6.5,6.5,0,0,0,6.482-6.482V236.1l-1.844-1.4Z" transform="translate(1.443 2.995)"/>
      <path id="Path_10563" data-name="Path 10563" d="M225.906,243.721a1.008,1.008,0,0,0,0-2.017h-5.782a1.008,1.008,0,1,0,0,2.017Z" transform="translate(3.653 6.079)"/>
    </g>
  </g>
</svg>
