<svg xmlns="http://www.w3.org/2000/svg" xmlns:xlink="http://www.w3.org/1999/xlink" width="32" height="32" viewBox="0 0 32 32">
  <defs>
    <clipPath id="clip-header_menu">
      <rect width="32" height="32"/>
    </clipPath>
  </defs>
  <g id="header_menu" clip-path="url(#clip-header_menu)">
    <g id="Group_15331" data-name="Group 15331" transform="translate(-188.064 -225.095)">
      <path id="Path_10559" data-name="Path 10559" d="M209.539,236.81l-.055-.034-.04.052a7.738,7.738,0,0,1-1.183,1.2l-.08.066.09.052a8.516,8.516,0,0,1,4.273,7.368c0,1.676-3.727,2.989-8.487,2.989s-8.488-1.313-8.488-2.989a8.513,8.513,0,0,1,4.273-7.368l.09-.052-.08-.066a7.737,7.737,0,0,1-1.183-1.2l-.04-.052-.055.034a10.242,10.242,0,0,0-4.81,8.705c0,1.123.61,2.689,3.526,3.761a22.675,22.675,0,0,0,13.525,0c2.913-1.07,3.523-2.635,3.523-3.76A10.241,10.241,0,0,0,209.539,236.81Z" transform="translate(0 3.787)"/>
      <path id="Path_10560" data-name="Path 10560" d="M202.687,241.821c3.181,0,5.771-3.078,5.771-6.862s-2.59-6.864-5.771-6.864-5.771,3.078-5.771,6.864S199.5,241.821,202.687,241.821Zm-3.97-6.869c0-2.758,1.742-5.007,3.9-5.056l.072.006c2.189,0,3.97,2.272,3.97,5.064s-1.781,5.05-3.97,5.05S198.717,237.744,198.717,234.952Z" transform="translate(1.375 0)"/>
    </g>
  </g>
</svg>
